Scooby Doo EDA
…
And it’s probably useful to count these:

scooby_raw %>% 
  count(motive, sort = TRUE)

# A tibble: 28 x 2
   motive               n
   <chr>            <int>
 1 Competition        168
 2 Theft              125
 3 <NA>                67
 4 Treasure            54
 5 Conquer             42
 6 Natural Resource    26
 7 Smuggling           22
 8 Trespassing         15
 9 Abduction           12
10 Food                11
# ... with 18 more rows
…
